LineNum,RightTrunkZ,RightTrunkX,RightTrunkY,RightShankY,RightFootY,RightFootX,LeftTrunkZ,LeftTrunkX,LeftTrunkY,LeftShankY,LeftFootY,LeftFootX,RightArmY,RightArmX,RightForearmY,LeftArmY,LeftArmX,LeftForearmY
1,-0,-0.0684771609565302,-0.532788966726415,1.06557793345283,-0.532788966726415,0.0684771609565302,-0,0.0676757336633663,-0.532881623667584,1.06576324733517,-0.532881623667584,-0.0676757336633663,0.61520612992413,-0.608498003855573,-1.62432916988456,0.61520612992413,0.608498003855573,-1.62432916988456
2,-0,-0.0692785001578442,-0.532695205940803,1.06539041188161,-0.532695205940803,0.0692785001578442,-0,0.0668742192934848,-0.532973177106786,1.06594635421357,-0.532973177106786,-0.0668742192934848,0.61520612992413,-0.608498003855573,-1.62432916988456,0.61520612992413,0.608498003855573,-1.62432916988456
3,-0,-0.0704803415686596,-0.532552494294012,1.06510498858802,-0.532552494294012,0.0704803415686596,-0,0.0656717866920611,-0.53310843893774,1.06621687787548,-0.53310843893774,-0.0656717866920611,0.61520612992413,-0.608498003855573,-1.62432916988456,0.61520612992413,0.608498003855573,-1.62432916988456
4,-0,-0.0720824789990947,-0.532358345367892,1.06471669073578,-0.532358345367892,0.0720824789990947,-0,0.0640682479413058,-0.533284928907393,1.06656985781479,-0.533284928907393,-0.0640682479413058,0.61520612992413,-0.608498003855573,-1.62432916988456,0.61520612992413,0.608498003855573,-1.62432916988456
5,-0,-0.0740846286755635,-0.532109440756991,1.06421888151398,-0.532109440756991,0.0740846286755635,-0,0.0620633613937588,-0.533499342826375,1.06699868565275,-0.533499342826375,-0.0620633613937588,0.61520612992413,-0.608498003855573,-1.62432916988456,0.61520612992413,0.608498003855573,-1.62432916988456
6,-0,-0.0764864216800447,-0.531801627164979,1.06360325432996,-0.531801627164979,0.0764864216800447,-0,0.0596568393337852,-0.533747554810938,1.06749510962188,-0.533747554810938,-0.0596568393337852,0.61520612992413,-0.608498003855573,-1.62432916988456,0.61520612992413,0.608498003855573,-1.62432916988456
7,-0,-0.0792873945359699,-0.531429912551137,1.06285982510227,-0.531429912551137,0.0792873945359699,-0,0.0568483575837263,-0.534024619874571,1.06804923974914,-0.534024619874571,-0.0568483575837263,0.61520612992413,-0.608498003855573,-1.62432916988456,0.61520612992413,0.608498003855573,-1.62432916988456
8,-0,-0.082486977967671,-0.530988461172565,1.06197692234513,-0.530988461172565,0.082486977967671,-0,0.053637567071721,-0.534324776732419,1.06864955346484,-0.534324776732419,-0.053637567071721,0.61520612992413,-0.608498003855573,-1.62432916988456,0.61520612992413,0.608498003855573,-1.62432916988456
9,-0,-0.0860844838680962,-0.530470587331465,1.06094117466293,-0.530470587331465,0.0860844838680962,-0,0.0500241073790962,-0.53464145065757,1.06928290131514,-0.53464145065757,-0.0500241073790962,0.61520612992413,-0.608498003855573,-1.62432916988456,0.61520612992413,0.608498003855573,-1.62432916988456
10,-0,-0.0900790905185126,-0.529868747597012,1.05973749519402,-0.529868747597012,0.0900790905185126,-0,0.0460076222846843,-0.534967256205483,1.06993451241097,-0.534967256205483,-0.0460076222846843,0.61520612992413,-0.608498003855573,-1.62432916988456,0.61520612992413,0.608498003855573,-1.62432916988456
11,-0,-0.0944698261143475,-0.529174531226822,1.05834906245364,-0.529174531226822,0.0944698261143475,-0,0.041587777321239,-0.535293999601182,1.07058799920236,-0.535293999601182,-0.041587777321239,0.61520612992413,-0.608498003855573,-1.62432916988456,0.61520612992413,0.608498003855573,-1.62432916988456
12,-0,-0.0992555506633125,-0.528378648462498,1.056757296925,-0.528378648462498,0.0992555506633125,-0,0.03676427935499,-0.535612680562974,1.07122536112595,-0.535612680562974,-0.03676427935499,0.61520612992413,-0.608498003855573,-1.62432916988456,0.61520612992413,0.608498003855573,-1.62432916988456
13,-0,-0.104434936335625,-0.527470916315405,1.05494183263081,-0.527470916315405,0.104434936335625,-0,0.0315368981930756,-0.535913493315875,1.07182698663175,-0.535913493315875,-0.0315368981930756,0.61520612992413,-0.608498003855573,-1.62432916988456,0.61520612992413,0.608498003855573,-1.62432916988456
14,-0,-0.110006446361574,-0.526440241390604,1.05288048278121,-0.526440241390604,0.110006446361574,-0,0.0259054902148247,-0.536185826526863,1.07237165305373,-0.536185826526863,-0.0259054902148247,0.61520612992413,-0.608498003855573,-1.62432916988456,0.61520612992413,0.608498003855573,-1.62432916988456
15,-0,-0.115968312588893,-0.5252745992159,1.0505491984318,-0.5252745992159,0.115968312588893,-0,0.0198700240113948,-0.536418261871652,1.0728365237433,-0.536418261871652,-0.0198700240113948,0.61520612992413,-0.608498003855573,-1.62432916988456,0.61520612992413,0.608498003855573,-1.62432916988456
16,-0,-0.122318511831452,-0.523961009445939,1.04792201889188,-0.523961009445939,0.122318511831452,-0,0.013430608003855,-0.536598570917667,1.07319714183533,-0.536598570917667,-0.013430608003855,0.61520612992413,-0.608498003855573,-1.62432916988456,0.61520612992413,0.608498003855573,-1.62432916988456
17,-0,-0.129054741161467,-0.522485506193749,1.0449710123875,-0.522485506193749,0.129054741161467,-0,0.00658751999221522,-0.536713709978881,1.07342741995776,-0.536713709978881,-0.00658751999221522,0.61520612992413,-0.608498003855573,-1.62432916988456,0.61520612992413,0.608498003855573,-1.62432916988456
18,-0,-0.136174392319811,-0.520833102598546,1.04166620519709,-0.520833102598546,0.136174392319811,-0,-0.000658761433033232,-0.53674981256336,1.07349962512672,-0.53674981256336,0.000658761433033232,0.61520612992413,-0.608498003855573,-1.62432916988456,0.61520612992413,0.608498003855573,-1.62432916988456
19,-0,-0.143674525442662,-0.518987748561919,1.03797549712384,-0.518987748561919,0.143674525442662,-0,-0.00830752370973292,-0.536692178991646,1.07338435798329,-0.536692178991646,0.00830752370973292,0.61520612992413,-0.608498003855573,-1.62432916988456,0.61520612992413,0.608498003855573,-1.62432916988456
20,-0,-0.151551842327555,-0.516932280365448,1.0338645607309,-0.516932280365448,0.151551842327555,-0,-0.0163577854740917,-0.53652526271095,1.0730505254219,-0.53652526271095,0.0163577854740917,0.61520612992413,-0.608498003855573,-1.62432916988456,0.61520612992413,0.608498003855573,-1.62432916988456
21,-0,-0.159802659487408,-0.514648360609434,1.02929672121887,-0.514648360609434,0.159802659487408,-0,-0.0248082602343505,-0.536232652763307,1.07246530552661,-0.536232652763307,0.0248082602343505,0.61520612992413,-0.608498003855573,-1.62432916988456,0.61520612992413,0.608498003855573,-1.62432916988456
22,-0,-0.16842288126683,-0.51211640656902,1.02423281313804,-0.51211640656902,0.16842288126683,-0,-0.0336573187355215,-0.535797051781755,1.07159410356351,-0.535797051781754,0.0336573187355215,0.61520612992413,-0.608498003855573,-1.62432916988456,0.61520612992413,0.608498003855573,-1.62432916988456
23,-0,-0.177407973320463,-0.509315504629678,1.01863100925936,-0.509315504629678,0.177407973320463,-0,-0.0429029502408904,-0.535200248782322,1.07040049756464,-0.535200248782322,0.0429029502408904,0.61520612992413,-0.608498003855573,-1.62432916988456,0.61520612992413,0.608498003855573,-1.62432916988456
24,-0,-0.186364209808437,-0.506355632388557,1.01271126477711,-0.506355632388557,0.186364209808437,-0,-0.0521412484383104,-0.534458621040675,1.06891724208135,-0.534458621040675,0.0521412484383104,0.61520612992413,-0.608498003855573,-1.62432916988456,0.61520612992413,0.608498003855573,-1.62432916988456
25,-0,-0.195290299802247,-0.503234924088687,1.00646984817737,-0.503234924088687,0.195290299802247,-0,-0.061370647285633,-0.533571813332161,1.06714362666432,-0.533571813332161,0.061370647285633,0.61520612992413,-0.608498003855573,-1.62432916988456,0.61520612992413,0.608498003855573,-1.62432916988456
26,-0,-0.204184980258999,-0.499951352122763,0.999902704245526,-0.499951352122763,0.204184980258999,-0,-0.0705895898188736,-0.532539397272056,1.06507879454411,-0.532539397272056,0.0705895898188736,0.61520612992413,-0.608498003855573,-1.62432916988456,0.61520612992413,0.608498003855573,-1.62432916988456
27,-0,-0.213047016883151,-0.496502714143781,0.993005428287562,-0.496502714143781,0.213047016883151,-0,-0.0797965297068968,-0.531360869132369,1.06272173826474,-0.531360869132369,0.0797965297068968,0.61520612992413,-0.608498003855573,-1.62432916988456,0.61520612992413,0.608498003855573,-1.62432916988456
28,-0,-0.221492090545014,-0.493047356781019,0.986094713562037,-0.493047356781018,0.221492090545014,-0,-0.0885905217575319,-0.530096324635025,1.06019264927005,-0.530096324635025,0.0885905217575319,0.61520612992413,-0.608498003855573,-1.62432916988456,0.61520612992413,0.608498003855573,-1.62432916988456
29,-0,-0.229523462268931,-0.489604055909048,0.979208111818095,-0.489604055909047,0.229523462268931,-0,-0.0969720102662345,-0.528763526703997,1.05752705340799,-0.528763526703997,0.0969720102662345,0.61520612992413,-0.608498003855573,-1.62432916988456,0.61520612992413,0.608498003855573,-1.62432916988456
30,-0,-0.237144483455185,-0.486191067476238,0.972382134952475,-0.486191067476238,0.237144483455185,-0,-0.104941711492054,-0.527379497519154,1.05475899503831,-0.527379497519154,0.104941711492054,0.61520612992413,-0.608498003855573,-1.62432916988456,0.61520612992413,0.608498003855573,-1.62432916988456
31,-0,-0.244358556237896,-0.482826118839693,0.965652237679386,-0.482826118839693,0.244358556237896,-0,-0.112500570370956,-0.525960525405641,1.05192105081128,-0.525960525405641,0.112500570370956,0.61520612992413,-0.608498003855573,-1.62432916988456,0.61520612992413,0.608498003855573,-1.62432916988456
32,-0,-0.251169097088905,-0.4795263948763,0.959052789752601,-0.4795263948763,0.251169097088905,-0,-0.119649719572774,-0.524522168187471,1.04904433637494,-0.524522168187471,0.119649719572774,0.61520612992413,-0.608498003855573,-1.62432916988456,0.61520612992413,0.608498003855573,-1.62432916988456
33,-0,-0.257579503532842,-0.476308518909029,0.952617037818058,-0.476308518909029,0.257579503532842,-0,-0.126390440975635,-0.523079253337909,1.04615850667582,-0.523079253337909,0.126390440975635,0.61520612992413,-0.608498003855573,-1.62432916988456,0.61520612992413,0.608498003855573,-1.62432916988456
34,-0,-0.263593123824099,-0.473188528558286,0.946377057116572,-0.473188528558286,0.263593123824099,-0,-0.132724129596689,-0.521645875243614,1.04329175048723,-0.521645875243614,0.132724129596689,0.61520612992413,-0.608498003855573,-1.62432916988456,0.61520612992413,0.608498003855573,-1.62432916988456
35,-0,-0.269213229427051,-0.470181846713668,0.940363693427336,-0.470181846713668,0.269213229427051,-0,-0.138652259988366,-0.520235389893565,1.04047077978713,-0.520235389893566,0.138652259988366,0.61520612992413,-0.608498003855573,-1.62432916988456,0.61520612992413,0.608498003855573,-1.62432916988456
36,-0,-0.2744429901359,-0.467303247919953,0.934606495839906,-0.467303247919953,0.2744429901359,-0,-0.144176355085004,-0.518860407305039,1.03772081461008,-0.518860407305039,0.144176355085004,0.61520612992413,-0.608498003855573,-1.62432916988456,0.61520612992413,0.608498003855573,-1.62432916988456
37,-0,-0.279285451669258,-0.464566820580093,0.929133641160186,-0.464566820580093,0.279285451669258,-0,-0.14929795746499,-0.517532782005248,1.0350655640105,-0.517532782005248,0.14929795746499,0.61520612992413,-0.608498003855573,-1.62432916988456,0.61520612992413,0.608498003855573,-1.62432916988456
38,-0,-0.283743515576423,-0.461985925493879,0.923971850987758,-0.461985925493879,0.283743515576423,-0,-0.154018602978336,-0.516263601896537,1.03252720379307,-0.516263601896537,0.154018602978336,0.61520612992413,-0.608498003855573,-1.62432916988456,0.61520612992413,0.608498003855573,-1.62432916988456
39,-0,-0.287819921296688,-0.459573151369633,0.919146302739265,-0.459573151369633,0.287819921296688,-0,-0.158339796678247,-0.515063175843491,1.03012635168698,-0.515063175843491,0.158339796678247,0.61520612992413,-0.608498003855573,-1.62432916988456,0.61520612992413,0.608498003855573,-1.62432916988456
40,-0,-0.291517230219491,-0.457340268062729,0.914680536125459,-0.457340268062729,0.291517230219491,-0,-0.162262990987514,-0.513941020330118,1.02788204066024,-0.513941020330118,0.162262990987514,0.61520612992413,-0.608498003855573,-1.62432916988456,0.61520612992413,0.608498003855573,-1.62432916988456
41,-0,-0.294837811601335,-0.45529817840326,0.91059635680652,-0.45529817840326,0.294837811601335,-0,-0.165789566025877,-0.512905845542821,1.02581169108564,-0.512905845542821,0.165789566025877,0.61520612992413,-0.608498003855573,-1.62432916988456,0.61520612992413,0.608498003855573,-1.62432916988456
42,-0,-0.297783830204817,-0.453456869569606,0.906913739139212,-0.453456869569606,0.297783830204817,-0,-0.168920812022639,-0.511965541238732,1.02393108247746,-0.511965541238732,0.168920812022639,0.61520612992413,-0.608498003855573,-1.62432916988456,0.61520612992413,0.608498003855573,-1.62432916988456
43,-0,-0.300357235535545,-0.451825365038883,0.903650730077765,-0.451825365038883,0.300357235535545,-0,-0.171657913739278,-0.511127162757884,1.02225432551577,-0.511127162757884,0.171657913739278,0.61520612992413,-0.608498003855573,-1.62432916988456,0.61520612992413,0.608498003855573,-1.62432916988456
44,-0,-0.302559752563915,-0.450411678193115,0.900823356386231,-0.450411678193115,0.302559752563915,-0,-0.174001936829344,-0.510396917530615,1.02079383506123,-0.510396917530615,0.174001936829344,0.61520612992413,-0.608498003855573,-1.62432916988456,0.61520612992413,0.608498003855573,-1.62432916988456
45,-0,-0.304392873830432,-0.44922276867644,0.898445537352879,-0.44922276867644,0.304392873830432,-0,-0.17595381606717,-0.509780152417842,1.01956030483568,-0.509780152417842,0.17595381606717,0.61520612992413,-0.608498003855573,-1.62432916988456,0.61520612992413,0.608498003855573,-1.62432916988456
46,-0,-0.305857852845467,-0.448264502579427,0.896529005158855,-0.448264502579427,0.305857852845467,-0,-0.177514345382675,-0.509281342200839,1.01856268440168,-0.509281342200839,0.177514345382675,0.61520612992413,-0.608498003855573,-1.62432916988456,0.61520612992413,0.608498003855573,-1.62432916988456
47,-0,-0.306955698706708,-0.447541617469455,0.89508323493891,-0.447541617469455,0.306955698706708,-0,-0.178684169646448,-0.508904079508962,1.01780815901792,-0.508904079508962,0.178684169646448,0.61520612992413,-0.608498003855573,-1.62432916988456,0.61520612992413,0.608498003855573,-1.62432916988456
48,-0,-0.307687171870226,-0.447057693190248,0.894115386380496,-0.447057693190248,0.307687171870226,-0,-0.179463778157212,-0.508651066438427,1.01730213287685,-0.508651066438426,0.179463778157212,0.61520612992413,-0.608498003855573,-1.62432916988456,0.61520612992413,0.608498003855573,-1.62432916988456
49,-0,-0.308052781023776,-0.446815129221154,0.893630258442308,-0.446815129221154,0.308052781023776,-0,-0.179853499792478,-0.508524108073429,1.01704821614686,-0.508524108073429,0.179853499792478,0.61520612992413,-0.608498003855573,-1.62432916988456,0.61520612992413,0.608498003855573,-1.62432916988456
50,-0,-0.308052781023776,-0.446815129221154,0.893630258442308,-0.446815129221154,0.308052781023776,-0,-0.179853499792478,-0.508524108073429,1.01704821614686,-0.508524108073429,0.179853499792478,0.61520612992413,-0.608498003855573,-1.62432916988456,0.61520612992413,0.608498003855573,-1.62432916988456
51,-0,-0.308116239127744,-0.447231112753377,0.894462225506755,-0.447231112753377,0.308116239127744,-0,-0.179853499792478,-0.508524108073429,1.01704821614686,-0.508524108073429,0.179853499792478,0.61520612992413,-0.608498003855573,-1.62432916988456,0.61520612992413,0.608498003855573,-1.62432916988456
52,-0,-0.308243231300347,-0.448061974288091,0.896123948576183,-0.448061974288092,0.308243231300347,-0,-0.179853499792478,-0.508524108073429,1.01704821614686,-0.508524108073429,0.179853499792478,0.61520612992413,-0.608498003855573,-1.62432916988456,0.61520612992413,0.608498003855573,-1.62432916988456
53,-0,-0.308433909690701,-0.449305518051889,0.898611036103778,-0.449305518051889,0.308433909690701,-0,-0.179853499792478,-0.508524108073429,1.01704821614686,-0.508524108073429,0.179853499792478,0.61520612992413,-0.608498003855573,-1.62432916988456,0.61520612992413,0.608498003855573,-1.62432916988456
54,-0,-0.308688503073072,-0.450958488112252,0.901916976224504,-0.450958488112252,0.308688503073072,-0,-0.179853499792478,-0.508524108073429,1.01704821614686,-0.508524108073429,0.179853499792478,0.61520612992413,-0.608498003855573,-1.62432916988456,0.61520612992413,0.608498003855573,-1.62432916988456
55,-0,-0.309007317510809,-0.453016612313202,0.906033224626404,-0.453016612313202,0.309007317510809,-0,-0.179853499792478,-0.508524108073429,1.01704821614686,-0.508524108073429,0.179853499792478,0.61520612992413,-0.608498003855573,-1.62432916988456,0.61520612992413,0.608498003855573,-1.62432916988456
56,-0,-0.309390737246949,-0.455474658707616,0.910949317415232,-0.455474658707616,0.309390737246949,-0,-0.179853499792478,-0.508524108073429,1.01704821614686,-0.508524108073429,0.179853499792478,0.61520612992413,-0.608498003855573,-1.62432916988456,0.61520612992413,0.608498003855573,-1.62432916988456
57,-0,-0.309839225826184,-0.458326502798341,0.916653005596681,-0.458326502798341,0.309839225826184,-0,-0.179853499792478,-0.508524108073429,1.01704821614686,-0.508524108073429,0.179853499792478,0.61520612992413,-0.608498003855573,-1.62432916988456,0.61520612992413,0.608498003855573,-1.62432916988456
58,-0,-0.310353327454077,-0.461565203654805,0.923130407309611,-0.461565203654805,0.310353327454077,-0,-0.179853499792478,-0.508524108073429,1.01704821614686,-0.508524108073429,0.179853499792478,0.61520612992413,-0.608498003855573,-1.62432916988456,0.61520612992413,0.608498003855573,-1.62432916988456
59,-0,-0.31093366860072,-0.465183086821965,0.930366173643931,-0.465183086821966,0.31093366860072,-0,-0.179853499792478,-0.508524108073429,1.01704821614686,-0.508524108073429,0.179853499792478,0.61520612992413,-0.608498003855573,-1.62432916988456,0.61520612992413,0.608498003855573,-1.62432916988456
60,-0,-0.31158095985736,-0.469171831884475,0.93834366376895,-0.469171831884475,0.31158095985736,-0,-0.179853499792478,-0.508524108073429,1.01704821614686,-0.508524108073429,0.179853499792478,0.61520612992413,-0.608498003855573,-1.62432916988456,0.61520612992413,0.608498003855573,-1.62432916988456
61,-0,-0.312295998055927,-0.473522562585066,0.947045125170132,-0.473522562585066,0.312295998055927,-0,-0.179853499792478,-0.508524108073429,1.01704821614686,-0.508524108073429,0.179853499792478,0.61520612992413,-0.608498003855573,-1.62432916988456,0.61520612992413,0.608498003855573,-1.62432916988456
62,-0,-0.313079668662916,-0.478225937510963,0.956451875021927,-0.478225937510963,0.313079668662916,-0,-0.179853499792478,-0.508524108073429,1.01704821614686,-0.508524108073429,0.179853499792478,0.61520612992413,-0.608498003855573,-1.62432916988456,0.61520612992413,0.608498003855573,-1.62432916988456
63,-0,-0.313932948460634,-0.483272239540873,0.966544479081747,-0.483272239540874,0.313932948460634,-0,-0.179853499792478,-0.508524108073429,1.01704821614686,-0.508524108073429,0.179853499792478,0.61520612992413,-0.608498003855573,-1.62432916988456,0.61520612992413,0.608498003855573,-1.62432916988456
64,-0,-0.314856908530539,-0.488651462470779,0.977302924941558,-0.488651462470779,0.314856908530539,-0,-0.179853499792478,-0.508524108073429,1.01704821614686,-0.508524108073429,0.179853499792478,0.61520612992413,-0.608498003855573,-1.62432916988456,0.61520612992413,0.608498003855573,-1.62432916988456
65,-0,-0.315852717555224,-0.494353393492094,0.988706786984187,-0.494353393492094,0.315852717555224,-0,-0.179853499792478,-0.508524108073429,1.01704821614686,-0.508524108073429,0.179853499792478,0.61520612992413,-0.608498003855573,-1.62432916988456,0.61520612992413,0.608498003855573,-1.62432916988456
66,-0,-0.316921645457565,-0.500367690464278,1.00073538092856,-0.500367690464278,0.316921645457565,-0,-0.179853499792478,-0.508524108073429,1.01704821614686,-0.508524108073429,0.179853499792478,0.61520612992413,-0.608498003855573,-1.62432916988456,0.61520612992413,0.608498003855573,-1.62432916988456
67,-0,-0.318065067397658,-0.506683953191363,1.01336790638273,-0.506683953191363,0.318065067397658,-0,-0.179853499792478,-0.508524108073429,1.01704821614686,-0.508524108073429,0.179853499792478,0.61520612992413,-0.608498003855573,-1.62432916988456,0.61520612992413,0.608498003855573,-1.62432916988456
68,-0,-0.319284468150513,-0.513291788166069,1.02658357633214,-0.513291788166069,0.319284468150513,-0,-0.179853499792478,-0.508524108073429,1.01704821614686,-0.508524108073429,0.179853499792478,0.61520612992413,-0.608498003855573,-1.62432916988456,0.61520612992413,0.608498003855573,-1.62432916988456
69,-0,-0.320581446889956,-0.52018086647753,1.04036173295506,-0.52018086647753,0.320581446889956,-0,-0.179853499792478,-0.508524108073429,1.01704821614686,-0.508524108073429,0.179853499792478,0.61520612992413,-0.608498003855573,-1.62432916988456,0.61520612992413,0.608498003855573,-1.62432916988456
70,-0,-0.321957722406937,-0.52734097478285,1.0546819495657,-0.52734097478285,0.321957722406937,-0,-0.179853499792478,-0.508524108073429,1.01704821614686,-0.508524108073429,0.179853499792478,0.61520612992413,-0.608498003855573,-1.62432916988456,0.61520612992413,0.608498003855573,-1.62432916988456
71,-0,-0.323415138793456,-0.534762059415639,1.06952411883128,-0.534762059415639,0.323415138793456,-0,-0.179853499792478,-0.508524108073429,1.01704821614686,-0.508524108073429,0.179853499792478,0.61520612992413,-0.608498003855573,-1.62432916988456,0.61520612992413,0.608498003855573,-1.62432916988456
72,-0,-0.324955671626574,-0.542434263845177,1.08486852769035,-0.542434263845177,0.324955671626574,-0,-0.179853499792478,-0.508524108073429,1.01704821614686,-0.508524108073429,0.179853499792478,0.61520612992413,-0.608498003855573,-1.62432916988456,0.61520612992413,0.608498003855573,-1.62432916988456
73,-0,-0.326581434690618,-0.55034795980869,1.10069591961738,-0.55034795980869,0.326581434690618,-0,-0.179853499792478,-0.508524108073429,1.01704821614686,-0.508524108073429,0.179853499792478,0.61520612992413,-0.608498003855573,-1.62432916988456,0.61520612992413,0.608498003855573,-1.62432916988456
74,-0,-0.328222955923938,-0.558156582981001,1.116313165962,-0.558156582981001,0.328222955923938,-0,-0.179853499792478,-0.508524108073429,1.01704821614686,-0.508524108073429,0.179853499792478,0.61520612992413,-0.608498003855573,-1.62432916988456,0.61520612992413,0.608498003855573,-1.62432916988456
75,-0,-0.329880456576586,-0.56586444249788,1.13172888499576,-0.56586444249788,0.329880456576586,-0,-0.179853499792478,-0.508524108073429,1.01704821614686,-0.508524108073429,0.179853499792478,0.61520612992413,-0.608498003855573,-1.62432916988456,0.61520612992413,0.608498003855573,-1.62432916988456
76,-0,-0.331554161875938,-0.573475559744209,1.14695111948842,-0.573475559744209,0.331554161875938,-0,-0.179853499792478,-0.508524108073429,1.01704821614686,-0.508524108073429,0.179853499792478,0.61520612992413,-0.608498003855573,-1.62432916988456,0.61520612992413,0.608498003855573,-1.62432916988456
77,-0,-0.333244301111673,-0.580993694249688,1.16198738849938,-0.580993694249688,0.333244301111673,-0,-0.179853499792478,-0.508524108073429,1.01704821614686,-0.508524108073429,0.179853499792478,0.61520612992413,-0.608498003855573,-1.62432916988456,0.61520612992413,0.608498003855573,-1.62432916988456
78,-0,-0.334876548951091,-0.588101195654404,1.17620239130881,-0.588101195654404,0.334876548951091,-0,-0.179853499792478,-0.508524108073429,1.01704821614686,-0.508524108073429,0.179853499792478,0.61520612992413,-0.608498003855573,-1.62432916988456,0.61520612992413,0.608498003855573,-1.62432916988456
79,-0,-0.336449020222796,-0.59481193479245,1.1896238695849,-0.59481193479245,0.336449020222796,-0,-0.179853499792478,-0.508524108073429,1.01704821614686,-0.508524108073429,0.179853499792478,0.61520612992413,-0.608498003855573,-1.62432916988456,0.61520612992413,0.608498003855573,-1.62432916988456
80,-0,-0.337959874239116,-0.601138404237371,1.20227680847474,-0.601138404237371,0.337959874239116,-0,-0.179853499792478,-0.508524108073429,1.01704821614686,-0.508524108073429,0.179853499792478,0.61520612992413,-0.608498003855573,-1.62432916988456,0.61520612992413,0.608498003855573,-1.62432916988456
81,-0,-0.339407319661158,-0.607091874291172,1.21418374858234,-0.607091874291172,0.339407319661158,-0,-0.179853499792478,-0.508524108073429,1.01704821614686,-0.508524108073429,0.179853499792478,0.61520612992413,-0.608498003855573,-1.62432916988456,0.61520612992413,0.608498003855573,-1.62432916988456
82,-0,-0.340789619323793,-0.612682525139379,1.22536505027876,-0.612682525139379,0.340789619323793,-0,-0.179853499792478,-0.508524108073429,1.01704821614686,-0.508524108073429,0.179853499792478,0.61520612992413,-0.608498003855573,-1.62432916988456,0.61520612992413,0.608498003855573,-1.62432916988456
83,-0,-0.342105094998644,-0.617919559338618,1.23583911867724,-0.617919559338618,0.342105094998644,-0,-0.179853499792478,-0.508524108073429,1.01704821614686,-0.508524108073429,0.179853499792478,0.61520612992413,-0.608498003855573,-1.62432916988456,0.61520612992413,0.608498003855573,-1.62432916988456
84,-0,-0.343352132072852,-0.622811297956192,1.24562259591238,-0.622811297956192,0.343352132072852,-0,-0.179853499792478,-0.508524108073429,1.01704821614686,-0.508524108073429,0.179853499792478,0.61520612992413,-0.608498003855573,-1.62432916988456,0.61520612992413,0.608498003855573,-1.62432916988456
85,-0,-0.344529184121343,-0.627365263025717,1.25473052605143,-0.627365263025717,0.344529184121343,-0,-0.179853499792478,-0.508524108073429,1.01704821614686,-0.508524108073429,0.179853499792478,0.61520612992413,-0.608498003855573,-1.62432916988456,0.61520612992413,0.608498003855573,-1.62432916988456
86,-0,-0.345634777350318,-0.631588248471157,1.26317649694231,-0.631588248471157,0.345634777350318,-0,-0.179853499792478,-0.508524108073429,1.01704821614686,-0.508524108073429,0.179853499792478,0.61520612992413,-0.608498003855573,-1.62432916988456,0.61520612992413,0.608498003855573,-1.62432916988456
87,-0,-0.346667514889941,-0.635486381248654,1.27097276249731,-0.635486381248654,0.346667514889941,-0,-0.179853499792478,-0.508524108073429,1.01704821614686,-0.508524108073429,0.179853499792478,0.61520612992413,-0.608498003855573,-1.62432916988456,0.61520612992413,0.608498003855573,-1.62432916988456
88,-0,-0.347626080914551,-0.639065174135675,1.27813034827135,-0.639065174135675,0.347626080914551,-0,-0.179853499792478,-0.508524108073429,1.01704821614686,-0.508524108073429,0.179853499792478,0.61520612992413,-0.608498003855573,-1.62432916988456,0.61520612992413,0.608498003855573,-1.62432916988456
89,-0,-0.348509244569267,-0.642329571340979,1.28465914268196,-0.642329571340979,0.348509244569267,-0,-0.179853499792478,-0.508524108073429,1.01704821614686,-0.508524108073429,0.179853499792478,0.61520612992413,-0.608498003855573,-1.62432916988456,0.61520612992413,0.608498003855573,-1.62432916988456
90,-0,-0.34931586368255,-0.645283987902512,1.29056797580502,-0.645283987902512,0.34931586368255,-0,-0.179853499792478,-0.508524108073429,1.01704821614686,-0.508524108073429,0.179853499792478,0.61520612992413,-0.608498003855573,-1.62432916988456,0.61520612992413,0.608498003855573,-1.62432916988456
91,-0,-0.350044888245146,-0.647932343672506,1.29586468734501,-0.647932343672506,0.350044888245146,-0,-0.179853499792478,-0.508524108073429,1.01704821614686,-0.508524108073429,0.179853499792478,0.61520612992413,-0.608498003855573,-1.62432916988456,0.61520612992413,0.608498003855573,-1.62432916988456
92,-0,-0.350695363636841,-0.650278092551612,1.30055618510322,-0.650278092551612,0.350695363636841,-0,-0.179853499792478,-0.508524108073429,1.01704821614686,-0.508524108073429,0.179853499792478,0.61520612992413,-0.608498003855573,-1.62432916988456,0.61520612992413,0.608498003855573,-1.62432916988456
93,-0,-0.351266433583621,-0.652324247520306,1.30464849504061,-0.652324247520306,0.351266433583621,-0,-0.179853499792478,-0.508524108073429,1.01704821614686,-0.508524108073429,0.179853499792478,0.61520612992413,-0.608498003855573,-1.62432916988456,0.61520612992413,0.608498003855573,-1.62432916988456
94,-0,-0.35175734282913,-0.654073401921112,1.30814680384222,-0.654073401921112,0.35175734282913,-0,-0.179853499792478,-0.508524108073429,1.01704821614686,-0.508524108073429,0.179853499792478,0.61520612992413,-0.608498003855573,-1.62432916988456,0.61520612992413,0.608498003855573,-1.62432916988456
95,-0,-0.352167439505753,-0.655527747365514,1.31105549473103,-0.655527747365514,0.352167439505753,-0,-0.179853499792478,-0.508524108073429,1.01704821614686,-0.508524108073429,0.179853499792478,0.61520612992413,-0.608498003855573,-1.62432916988456,0.61520612992413,0.608498003855573,-1.62432916988456
96,-0,-0.352496177192196,-0.656689088571553,1.31337817714311,-0.656689088571553,0.352496177192196,-0,-0.179853499792478,-0.508524108073429,1.01704821614686,-0.508524108073429,0.179853499792478,0.61520612992413,-0.608498003855573,-1.62432916988456,0.61520612992413,0.608498003855573,-1.62432916988456
97,-0,-0.352743116646108,-0.657558855379645,1.31511771075929,-0.657558855379645,0.352743116646108,-0,-0.179853499792478,-0.508524108073429,1.01704821614686,-0.508524108073429,0.179853499792478,0.61520612992413,-0.608498003855573,-1.62432916988456,0.61520612992413,0.608498003855573,-1.62432916988456
98,-0,-0.352907927202046,-0.658138112143018,1.31627622428604,-0.658138112143018,0.352907927202046,-0,-0.179853499792478,-0.508524108073429,1.01704821614686,-0.508524108073429,0.179853499792478,0.61520612992413,-0.608498003855573,-1.62432916988456,0.61520612992413,0.608498003855573,-1.62432916988456
99,-0,-0.35299038782691,-0.658427564643692,1.31685512928738,-0.658427564643692,0.35299038782691,-0,-0.179853499792478,-0.508524108073429,1.01704821614686,-0.508524108073429,0.179853499792478,0.61520612992413,-0.608498003855573,-1.62432916988456,0.61520612992413,0.608498003855573,-1.62432916988456
100,-0,-0.35299038782691,-0.658427564643692,1.31685512928738,-0.658427564643692,0.35299038782691,-0,-0.179853499792478,-0.508524108073429,1.01704821614686,-0.508524108073429,0.179853499792478,0.61520612992413,-0.608498003855573,-1.62432916988456,0.61520612992413,0.608498003855573,-1.62432916988456
101,-0,-0.352990387826911,-0.659959784627087,1.31685208844004,-0.656892303812953,0.352990387826911,-0,-0.179853499792478,-0.508524108073429,1.01704821614686,-0.508524108073429,0.179853499792478,0.61520612992413,-0.608498003855573,-1.62432916988456,0.61520612992413,0.608498003855573,-1.62432916988456
102,-0,-0.35299038782691,-0.663015073145717,1.3168277615749,-0.653812688429181,0.35299038782691,-0,-0.179853499792478,-0.508524108073429,1.01704821614686,-0.508524108073429,0.179853499792478,0.61520612992413,-0.608498003855573,-1.62432916988456,0.61520612992413,0.608498003855573,-1.62432916988456
103,-0,-0.35299038782691,-0.667575018536774,1.31674565727082,-0.649170638734047,0.35299038782691,-0,-0.179853499792478,-0.508524108073429,1.01704821614686,-0.508524108073429,0.179853499792478,0.61520612992413,-0.608498003855573,-1.62432916988456,0.61520612992413,0.608498003855573,-1.62432916988456
104,-0,-0.35299038782691,-0.673611729961474,1.31655103266778,-0.642939302706301,0.35299038782691,-0,-0.179853499792478,-0.508524108073429,1.01704821614686,-0.508524108073429,0.179853499792478,0.61520612992413,-0.608498003855573,-1.62432916988456,0.61520612992413,0.608498003855573,-1.62432916988456
105,-0,-0.352990387826911,-0.681087505573154,1.31617087809259,-0.635083372519436,0.352990387826911,-0,-0.179853499792478,-0.508524108073429,1.01704821614686,-0.508524108073429,0.179853499792478,0.61520612992413,-0.608498003855573,-1.62432916988456,0.61520612992413,0.608498003855573,-1.62432916988456
106,-0,-0.35299038782691,-0.689954384231527,1.31551388228354,-0.625559498052014,0.35299038782691,-0,-0.179853499792478,-0.508524108073429,1.01704821614686,-0.508524108073429,0.179853499792478,0.61520612992413,-0.608498003855573,-1.62432916988456,0.61520612992413,0.608498003855573,-1.62432916988456
107,-0,-0.35299038782691,-0.700153576723769,1.31447036562445,-0.614316788900678,0.35299038782691,-0,-0.179853499792478,-0.508524108073429,1.01704821614686,-0.508524108073429,0.179853499792478,0.61520612992413,-0.608498003855573,-1.62432916988456,0.61520612992413,0.608498003855573,-1.62432916988456
108,-0,-0.352990387826911,-0.71019362299449,1.31312828168073,-0.60293465868624,0.352990387826911,-0,-0.179853499792478,-0.508524108073429,1.01704821614686,-0.508524108073429,0.179853499792478,0.61520612992413,-0.608498003855573,-1.62432916988456,0.61520612992413,0.608498003855573,-1.62432916988456
109,-0,-0.35299038782691,-0.720071923528658,1.31148731173725,-0.591415388208589,0.35299038782691,-0,-0.179853499792478,-0.508524108073429,1.01704821614686,-0.508524108073429,0.179853499792478,0.61520612992413,-0.608498003855573,-1.62432916988456,0.61520612992413,0.608498003855573,-1.62432916988456
110,-0,-0.35299038782691,-0.729785858047726,1.30954706182594,-0.579761203778218,0.35299038782691,-0,-0.179853499792478,-0.508524108073429,1.01704821614686,-0.508524108073429,0.179853499792478,0.61520612992413,-0.608498003855573,-1.62432916988456,0.61520612992413,0.608498003855573,-1.62432916988456
111,-0,-0.352990387826911,-0.739332787410499,1.30730706003752,-0.567974272627018,0.352990387826911,-0,-0.179853499792478,-0.508524108073429,1.01704821614686,-0.508524108073429,0.179853499792478,0.61520612992413,-0.608498003855573,-1.62432916988456,0.61520612992413,0.608498003855573,-1.62432916988456
112,-0,-0.35299038782691,-0.748710055186531,1.30476675331457,-0.556056698128035,0.35299038782691,-0,-0.179853499792478,-0.508524108073429,1.01704821614686,-0.508524108073429,0.179853499792478,0.61520612992413,-0.608498003855573,-1.62432916988456,0.61520612992413,0.608498003855573,-1.62432916988456
113,-0,-0.35299038782691,-0.757914988883923,1.30192550371053,-0.544010514826609,0.35299038782691,-0,-0.179853499792478,-0.508524108073429,1.01704821614686,-0.508524108073429,0.179853499792478,0.61520612992413,-0.608498003855573,-1.62432916988456,0.61520612992413,0.608498003855573,-1.62432916988456
114,-0,-0.352990387826911,-0.76694490081237,1.29878258409564,-0.531837683283274,0.352990387826911,-0,-0.179853499792478,-0.508524108073429,1.01704821614686,-0.508524108073429,0.179853499792478,0.61520612992413,-0.608498003855573,-1.62432916988456,0.61520612992413,0.608498003855573,-1.62432916988456
115,-0,-0.35299038782691,-0.775797088561166,1.29533717328776,-0.519540084726594,0.35299038782691,-0,-0.179853499792478,-0.508524108073429,1.01704821614686,-0.508524108073429,0.179853499792478,0.61520612992413,-0.608498003855573,-1.62432916988456,0.61520612992413,0.608498003855573,-1.62432916988456
116,-0,-0.35299038782691,-0.784468835070569,1.29158835058218,-0.507119515511609,0.35299038782691,-0,-0.179853499792478,-0.508524108073429,1.01704821614686,-0.508524108073429,0.179853499792478,0.61520612992413,-0.608498003855573,-1.62432916988456,0.61520612992413,0.608498003855573,-1.62432916988456
117,-0,-0.35299038782691,-0.79295740827353,1.28753508965041,-0.494577681376878,0.35299038782691,-0,-0.179853499792478,-0.508524108073429,1.01704821614686,-0.508524108073429,0.179853499792478,0.61520612992413,-0.608498003855573,-1.62432916988456,0.61520612992413,0.608498003855573,-1.62432916988456
118,-0,-0.35299038782691,-0.801260060283093,1.28317625177316,-0.481916191490064,0.35299038782691,-0,-0.179853499792478,-0.508524108073429,1.01704821614686,-0.508524108073429,0.179853499792478,0.61520612992413,-0.608498003855573,-1.62432916988456,0.61520612992413,0.608498003855573,-1.62432916988456
119,-0,-0.35299038782691,-0.80937402609892,1.27851057836764,-0.46913655226872,0.35299038782691,-0,-0.179853499792478,-0.508524108073429,1.01704821614686,-0.508524108073429,0.179853499792478,0.61520612992413,-0.608498003855573,-1.62432916988456,0.61520612992413,0.608498003855573,-1.62432916988456
120,-0,-0.35299038782691,-0.817296521804113,1.27353668276332,-0.456240160959205,0.35299038782691,-0,-0.179853499792478,-0.508524108073429,1.01704821614686,-0.508524108073429,0.179853499792478,0.61520612992413,-0.608498003855573,-1.62432916988456,0.61520612992413,0.608498003855573,-1.62432916988456
121,-0,-0.35299038782691,-0.825024742220968,1.26825304117356,-0.443228298952593,0.35299038782691,-0,-0.179853499792478,-0.508524108073429,1.01704821614686,-0.508524108073429,0.179853499792478,0.61520612992413,-0.608498003855573,-1.62432916988456,0.61520612992413,0.608498003855573,-1.62432916988456
122,-0,-0.35299038782691,-0.832555857991238,1.26265798280308,-0.430102124811846,0.35299038782691,-0,-0.179853499792478,-0.508524108073429,1.01704821614686,-0.508524108073429,0.179853499792478,0.61520612992413,-0.608498003855573,-1.62432916988456,0.61520612992413,0.608498003855573,-1.62432916988456
123,-0,-0.35299038782691,-0.839887012042929,1.25674967902238,-0.416862666979448,0.35299038782691,-0,-0.179853499792478,-0.508524108073429,1.01704821614686,-0.508524108073429,0.179853499792478,0.61520612992413,-0.608498003855573,-1.62432916988456,0.61520612992413,0.608498003855573,-1.62432916988456
124,-0,-0.35299038782691,-0.846009516238013,1.25143459097525,-0.405425074737235,0.35299038782691,-0,-0.179853499792478,-0.508524108073429,1.01704821614686,-0.508524108073429,0.179853499792478,0.61520612992413,-0.608498003855573,-1.62432916988456,0.61520612992413,0.608498003855573,-1.62432916988456
125,-0,-0.35299038782691,-0.850996431511129,1.24682744932114,-0.395831017810008,0.35299038782691,-0,-0.179853499792478,-0.508524108073429,1.01704821614686,-0.508524108073429,0.179853499792478,0.61520612992413,-0.608498003855573,-1.62432916988456,0.61520612992413,0.608498003855573,-1.62432916988456
126,-0,-0.35299038782691,-0.854909804139294,1.24302468655125,-0.388114882411953,0.35299038782691,-0,-0.179853499792478,-0.508524108073429,1.01704821614686,-0.508524108073429,0.179853499792478,0.61520612992413,-0.608498003855573,-1.62432916988456,0.61520612992413,0.608498003855573,-1.62432916988456
127,-0,-0.35299038782691,-0.857800042171637,1.24010403742593,-0.382303995254292,0.35299038782691,-0,-0.179853499792478,-0.508524108073429,1.01704821614686,-0.508524108073429,0.179853499792478,0.61520612992413,-0.608498003855573,-1.62432916988456,0.61520612992413,0.608498003855573,-1.62432916988456
128,-0,-0.35299038782691,-0.859705406841952,1.23812417113407,-0.378418764292115,0.35299038782691,-0,-0.179853499792478,-0.508524108073429,1.01704821614686,-0.508524108073429,0.179853499792478,0.61520612992413,-0.608498003855573,-1.62432916988456,0.61520612992413,0.608498003855573,-1.62432916988456
129,-0,-0.35299038782691,-0.860651624524306,1.23712438501377,-0.37647276048946,0.35299038782691,-0,-0.179853499792478,-0.508524108073429,1.01704821614686,-0.508524108073429,0.179853499792478,0.61520612992413,-0.608498003855573,-1.62432916988456,0.61520612992413,0.608498003855573,-1.62432916988456
130,-0,-0.35299038782691,-0.860651624524306,1.23712438501377,-0.37647276048946,0.35299038782691,-0,-0.179853499792478,-0.508524108073429,1.01704821614686,-0.508524108073429,0.179853499792478,0.61520612992413,-0.608498003855573,-1.62432916988456,0.61520612992413,0.608498003855573,-1.62432916988456
131,-0,-0.35299038782691,-0.859971966851444,1.2378436458053,-0.377871678953853,0.35299038782691,-0,-0.179853499792478,-0.508524108073429,1.01704821614686,-0.508524108073429,0.179853499792478,0.61520612992413,-0.608498003855573,-1.62432916988456,0.61520612992413,0.608498003855573,-1.62432916988456
132,-0,-0.35299038782691,-0.858605967068382,1.23927198276622,-0.380666015697834,0.35299038782691,-0,-0.179853499792478,-0.508524108073429,1.01704821614686,-0.508524108073429,0.179853499792478,0.61520612992413,-0.608498003855573,-1.62432916988456,0.61520612992413,0.608498003855573,-1.62432916988456
133,-0,-0.35299038782691,-0.856540305488109,1.24138906955215,-0.384848764064036,0.35299038782691,-0,-0.179853499792478,-0.508524108073429,1.01704821614686,-0.508524108073429,0.179853499792478,0.61520612992413,-0.608498003855573,-1.62432916988456,0.61520612992413,0.608498003855573,-1.62432916988456
134,-0,-0.35299038782691,-0.853755124930987,1.24416452130801,-0.390409396377027,0.35299038782691,-0,-0.179853499792478,-0.508524108073429,1.01704821614686,-0.508524108073429,0.179853499792478,0.61520612992413,-0.608498003855573,-1.62432916988456,0.61520612992413,0.608498003855573,-1.62432916988456
135,-0,-0.35299038782691,-0.850224175892707,1.24755801319534,-0.397333837302632,0.35299038782691,-0,-0.179853499792478,-0.508524108073429,1.01704821614686,-0.508524108073429,0.179853499792478,0.61520612992413,-0.608498003855573,-1.62432916988456,0.61520612992413,0.608498003855573,-1.62432916988456
136,-0,-0.352990387826911,-0.845915007569751,1.25151942717481,-0.405604419605061,0.352990387826911,-0,-0.179853499792478,-0.508524108073429,1.01704821614686,-0.508524108073429,0.179853499792478,0.61520612992413,-0.608498003855573,-1.62432916988456,0.61520612992413,0.608498003855573,-1.62432916988456
137,-0,-0.352990387826911,-0.840789202985898,1.2559890183913,-0.415199815405398,0.352990387826911,-0,-0.179853499792478,-0.508524108073429,1.01704821614686,-0.508524108073429,0.179853499792478,0.61520612992413,-0.608498003855573,-1.62432916988456,0.61520612992413,0.608498003855573,-1.62432916988456
138,-0,-0.35299038782691,-0.834802656470447,1.26089759147141,-0.426094935000959,0.35299038782691,-0,-0.179853499792478,-0.508524108073429,1.01704821614686,-0.508524108073429,0.179853499792478,0.61520612992413,-0.608498003855573,-1.62432916988456,0.61520612992413,0.608498003855573,-1.62432916988456
139,-0,-0.35299038782691,-0.827905891941233,1.26616667659453,-0.438260784653298,0.35299038782691,-0,-0.179853499792478,-0.508524108073429,1.01704821614686,-0.508524108073429,0.179853499792478,0.61520612992413,-0.608498003855573,-1.62432916988456,0.61520612992413,0.608498003855573,-1.62432916988456
140,-0,-0.35299038782691,-0.820044420792695,1.27170869531544,-0.45166427452274,0.35299038782691,-0,-0.179853499792478,-0.508524108073429,1.01704821614686,-0.508524108073429,0.179853499792478,0.61520612992413,-0.608498003855573,-1.62432916988456,0.61520612992413,0.608498003855573,-1.62432916988456
141,-0,-0.35299038782691,-0.811159138595645,1.27742710673038,-0.466267968134735,0.35299038782691,-0,-0.179853499792478,-0.508524108073429,1.01704821614686,-0.508524108073429,0.179853499792478,0.61520612992413,-0.608498003855573,-1.62432916988456,0.61520612992413,0.608498003855573,-1.62432916988456
142,-0,-0.352990387826911,-0.801186760162032,1.28321652557454,-0.482029765412504,0.352990387826911,-0,-0.179853499792478,-0.508524108073429,1.01704821614686,-0.508524108073429,0.179853499792478,0.61520612992413,-0.608498003855573,-1.62432916988456,0.61520612992413,0.608498003855573,-1.62432916988456
143,-0,-0.35299038782691,-0.790060292666871,1.28896280506535,-0.498902512398479,0.35299038782691,-0,-0.179853499792478,-0.508524108073429,1.01704821614686,-0.508524108073429,0.179853499792478,0.61520612992413,-0.608498003855573,-1.62432916988456,0.61520612992413,0.608498003855573,-1.62432916988456
144,-0,-0.35299038782691,-0.777709546277231,1.29454307858121,-0.516833532303976,0.35299038782691,-0,-0.179853499792478,-0.508524108073429,1.01704821614686,-0.508524108073429,0.179853499792478,0.61520612992413,-0.608498003855573,-1.62432916988456,0.61520612992413,0.608498003855573,-1.62432916988456
145,-0,-0.35299038782691,-0.76498469993392,1.29949591539223,-0.53451121545831,0.35299038782691,-0,-0.179853499792478,-0.508524108073429,1.01704821614686,-0.508524108073429,0.179853499792478,0.61520612992413,-0.608498003855573,-1.62432916988456,0.61520612992413,0.608498003855573,-1.62432916988456
146,-0,-0.35299038782691,-0.751893824692908,1.30382405282926,-0.551930228136353,0.35299038782691,-0,-0.179853499792478,-0.508524108073429,1.01704821614686,-0.508524108073429,0.179853499792478,0.61520612992413,-0.608498003855573,-1.62432916988456,0.61520612992413,0.608498003855573,-1.62432916988456
147,-0,-0.35299038782691,-0.739417267635803,1.30728570828964,-0.567868440653835,0.35299038782691,-0,-0.179853499792478,-0.508524108073429,1.01704821614686,-0.508524108073429,0.179853499792478,0.61520612992413,-0.608498003855573,-1.62432916988456,0.61520612992413,0.608498003855573,-1.62432916988456
148,-0,-0.35299038782691,-0.727631954005102,1.31000612233178,-0.58237416832668,0.35299038782691,-0,-0.179853499792478,-0.508524108073429,1.01704821614686,-0.508524108073429,0.179853499792478,0.61520612992413,-0.608498003855573,-1.62432916988456,0.61520612992413,0.608498003855573,-1.62432916988456
149,-0,-0.35299038782691,-0.716606685413157,1.31210018704181,-0.59549350162865,0.35299038782691,-0,-0.179853499792478,-0.508524108073429,1.01704821614686,-0.508524108073429,0.179853499792478,0.61520612992413,-0.608498003855573,-1.62432916988456,0.61520612992413,0.608498003855573,-1.62432916988456
150,-0,-0.35299038782691,-0.706402686026518,1.31367272523975,-0.607270039213227,0.35299038782691,-0,-0.179853499792478,-0.508524108073429,1.01704821614686,-0.508524108073429,0.179853499792478,0.61520612992413,-0.608498003855573,-1.62432916988456,0.61520612992413,0.608498003855573,-1.62432916988456
151,-0,-0.35299038782691,-0.697074097486706,1.31481869570107,-0.617744598214364,0.35299038782691,-0,-0.179853499792478,-0.508524108073429,1.01704821614686,-0.508524108073429,0.179853499792478,0.61520612992413,-0.608498003855573,-1.62432916988456,0.61520612992413,0.608498003855573,-1.62432916988456
152,-0,-0.35299038782691,-0.688668423791838,1.31562334187155,-0.626954918079709,0.35299038782691,-0,-0.179853499792478,-0.508524108073429,1.01704821614686,-0.508524108073429,0.179853499792478,0.61520612992413,-0.608498003855573,-1.62432916988456,0.61520612992413,0.608498003855573,-1.62432916988456
153,-0,-0.35299038782691,-0.681226926987966,1.31616229745117,-0.634935370463206,0.35299038782691,-0,-0.179853499792478,-0.508524108073429,1.01704821614686,-0.508524108073429,0.179853499792478,0.61520612992413,-0.608498003855573,-1.62432916988456,0.61520612992413,0.608498003855573,-1.62432916988456
154,-0,-0.35299038782691,-0.674784974497508,1.3165016592457,-0.641716684748195,0.35299038782691,-0,-0.179853499792478,-0.508524108073429,1.01704821614686,-0.508524108073429,0.179853499792478,0.61520612992413,-0.608498003855573,-1.62432916988456,0.61520612992413,0.608498003855573,-1.62432916988456
155,-0,-0.35299038782691,-0.669372339052163,1.31669803549729,-0.647325696445132,0.35299038782691,-0,-0.179853499792478,-0.508524108073429,1.01704821614686,-0.508524108073429,0.179853499792478,0.61520612992413,-0.608498003855573,-1.62432916988456,0.61520612992413,0.608498003855573,-1.62432916988456
156,-0,-0.35299038782691,-0.665013452370362,1.31679857626104,-0.651785123890677,0.35299038782691,-0,-0.179853499792478,-0.508524108073429,1.01704821614686,-0.508524108073429,0.179853499792478,0.61520612992413,-0.608498003855573,-1.62432916988456,0.61520612992413,0.608498003855573,-1.62432916988456
157,-0,-0.35299038782691,-0.661727613843499,1.31684099110862,-0.655113377265126,0.35299038782691,-0,-0.179853499792478,-0.508524108073429,1.01704821614686,-0.508524108073429,0.179853499792478,0.61520612992413,-0.608498003855573,-1.62432916988456,0.61520612992413,0.608498003855573,-1.62432916988456
158,-0,-0.352990387826911,-0.659529155526024,1.31685355838119,-0.657324402855171,0.352990387826911,-0,-0.179853499792478,-0.508524108073429,1.01704821614686,-0.508524108073429,0.179853499792478,0.61520612992413,-0.608498003855573,-1.62432916988456,0.61520612992413,0.608498003855573,-1.62432916988456
159,-0,-0.35299038782691,-0.658427564643692,1.31685512928738,-0.658427564643692,0.35299038782691,-0,-0.179853499792478,-0.508524108073429,1.01704821614686,-0.508524108073429,0.179853499792478,0.61520612992413,-0.608498003855573,-1.62432916988456,0.61520612992413,0.608498003855573,-1.62432916988456
160,-0,-0.35299038782691,-0.658427564643692,1.31685512928738,-0.658427564643692,0.35299038782691,-0,-0.179853499792478,-0.508524108073429,1.01704821614686,-0.508524108073429,0.179853499792478,0.61520612992413,-0.608498003855573,-1.62432916988456,0.61520612992413,0.608498003855573,-1.62432916988456
161,-0,-0.352907927202046,-0.658138112143018,1.31627622428604,-0.658138112143018,0.352907927202046,-0,-0.179853499792478,-0.508524108073429,1.01704821614686,-0.508524108073429,0.179853499792478,0.61520612992413,-0.608498003855573,-1.62432916988456,0.61520612992413,0.608498003855573,-1.62432916988456
162,-0,-0.352743116646108,-0.657558855379645,1.31511771075929,-0.657558855379645,0.352743116646108,-0,-0.179853499792478,-0.508524108073429,1.01704821614686,-0.508524108073429,0.179853499792478,0.61520612992413,-0.608498003855573,-1.62432916988456,0.61520612992413,0.608498003855573,-1.62432916988456
163,-0,-0.352496177192196,-0.656689088571553,1.31337817714311,-0.656689088571553,0.352496177192196,-0,-0.179853499792478,-0.508524108073429,1.01704821614686,-0.508524108073429,0.179853499792478,0.61520612992413,-0.608498003855573,-1.62432916988456,0.61520612992413,0.608498003855573,-1.62432916988456
164,-0,-0.352167439505753,-0.655527747365514,1.31105549473103,-0.655527747365514,0.352167439505753,-0,-0.179853499792478,-0.508524108073429,1.01704821614686,-0.508524108073429,0.179853499792478,0.61520612992413,-0.608498003855573,-1.62432916988456,0.61520612992413,0.608498003855573,-1.62432916988456
165,-0,-0.35175734282913,-0.654073401921112,1.30814680384222,-0.654073401921112,0.35175734282913,-0,-0.179853499792478,-0.508524108073429,1.01704821614686,-0.508524108073429,0.179853499792478,0.61520612992413,-0.608498003855573,-1.62432916988456,0.61520612992413,0.608498003855573,-1.62432916988456
166,-0,-0.351266433583621,-0.652324247520306,1.30464849504061,-0.652324247520306,0.351266433583621,-0,-0.179853499792478,-0.508524108073429,1.01704821614686,-0.508524108073429,0.179853499792478,0.61520612992413,-0.608498003855573,-1.62432916988456,0.61520612992413,0.608498003855573,-1.62432916988456
167,-0,-0.350695363636841,-0.650278092551612,1.30055618510322,-0.650278092551612,0.350695363636841,-0,-0.179853499792478,-0.508524108073429,1.01704821614686,-0.508524108073429,0.179853499792478,0.61520612992413,-0.608498003855573,-1.62432916988456,0.61520612992413,0.608498003855573,-1.62432916988456
168,-0,-0.350044888245146,-0.647932343672506,1.29586468734501,-0.647932343672506,0.350044888245146,-0,-0.179853499792478,-0.508524108073429,1.01704821614686,-0.508524108073429,0.179853499792478,0.61520612992413,-0.608498003855573,-1.62432916988456,0.61520612992413,0.608498003855573,-1.62432916988456
169,-0,-0.34931586368255,-0.645283987902512,1.29056797580502,-0.645283987902512,0.34931586368255,-0,-0.179853499792478,-0.508524108073429,1.01704821614686,-0.508524108073429,0.179853499792478,0.61520612992413,-0.608498003855573,-1.62432916988456,0.61520612992413,0.608498003855573,-1.62432916988456
170,-0,-0.348509244569267,-0.642329571340979,1.28465914268196,-0.642329571340979,0.348509244569267,-0,-0.179853499792478,-0.508524108073429,1.01704821614686,-0.508524108073429,0.179853499792478,0.61520612992413,-0.608498003855573,-1.62432916988456,0.61520612992413,0.608498003855573,-1.62432916988456
171,-0,-0.347626080914551,-0.639065174135675,1.27813034827135,-0.639065174135675,0.347626080914551,-0,-0.179853499792478,-0.508524108073429,1.01704821614686,-0.508524108073429,0.179853499792478,0.61520612992413,-0.608498003855573,-1.62432916988456,0.61520612992413,0.608498003855573,-1.62432916988456
172,-0,-0.346667514889941,-0.635486381248654,1.27097276249731,-0.635486381248654,0.346667514889941,-0,-0.179853499792478,-0.508524108073429,1.01704821614686,-0.508524108073429,0.179853499792478,0.61520612992413,-0.608498003855573,-1.62432916988456,0.61520612992413,0.608498003855573,-1.62432916988456
173,-0,-0.345634777350318,-0.631588248471157,1.26317649694231,-0.631588248471157,0.345634777350318,-0,-0.179853499792478,-0.508524108073429,1.01704821614686,-0.508524108073429,0.179853499792478,0.61520612992413,-0.608498003855573,-1.62432916988456,0.61520612992413,0.608498003855573,-1.62432916988456
174,-0,-0.344529184121343,-0.627365263025717,1.25473052605143,-0.627365263025717,0.344529184121343,-0,-0.179853499792478,-0.508524108073429,1.01704821614686,-0.508524108073429,0.179853499792478,0.61520612992413,-0.608498003855573,-1.62432916988456,0.61520612992413,0.608498003855573,-1.62432916988456
175,-0,-0.343352132072852,-0.622811297956192,1.24562259591238,-0.622811297956192,0.343352132072852,-0,-0.179853499792478,-0.508524108073429,1.01704821614686,-0.508524108073429,0.179853499792478,0.61520612992413,-0.608498003855573,-1.62432916988456,0.61520612992413,0.608498003855573,-1.62432916988456
176,-0,-0.342105094998644,-0.617919559338618,1.23583911867724,-0.617919559338618,0.342105094998644,-0,-0.179853499792478,-0.508524108073429,1.01704821614686,-0.508524108073429,0.179853499792478,0.61520612992413,-0.608498003855573,-1.62432916988456,0.61520612992413,0.608498003855573,-1.62432916988456
177,-0,-0.340789619323793,-0.612682525139379,1.22536505027876,-0.612682525139379,0.340789619323793,-0,-0.179853499792478,-0.508524108073429,1.01704821614686,-0.508524108073429,0.179853499792478,0.61520612992413,-0.608498003855573,-1.62432916988456,0.61520612992413,0.608498003855573,-1.62432916988456
178,-0,-0.339407319661158,-0.607091874291172,1.21418374858234,-0.607091874291172,0.339407319661158,-0,-0.179853499792478,-0.508524108073429,1.01704821614686,-0.508524108073429,0.179853499792478,0.61520612992413,-0.608498003855573,-1.62432916988456,0.61520612992413,0.608498003855573,-1.62432916988456
179,-0,-0.337959874239116,-0.601138404237371,1.20227680847474,-0.601138404237371,0.337959874239116,-0,-0.179853499792478,-0.508524108073429,1.01704821614686,-0.508524108073429,0.179853499792478,0.61520612992413,-0.608498003855573,-1.62432916988456,0.61520612992413,0.608498003855573,-1.62432916988456
180,-0,-0.336449020222796,-0.59481193479245,1.1896238695849,-0.59481193479245,0.336449020222796,-0,-0.179853499792478,-0.508524108073429,1.01704821614686,-0.508524108073429,0.179853499792478,0.61520612992413,-0.608498003855573,-1.62432916988456,0.61520612992413,0.608498003855573,-1.62432916988456
181,-0,-0.334876548951091,-0.588101195654404,1.17620239130881,-0.588101195654404,0.334876548951091,-0,-0.179853499792478,-0.508524108073429,1.01704821614686,-0.508524108073429,0.179853499792478,0.61520612992413,-0.608498003855573,-1.62432916988456,0.61520612992413,0.608498003855573,-1.62432916988456
182,-0,-0.333244301111673,-0.580993694249688,1.16198738849938,-0.580993694249688,0.333244301111673,-0,-0.179853499792478,-0.508524108073429,1.01704821614686,-0.508524108073429,0.179853499792478,0.61520612992413,-0.608498003855573,-1.62432916988456,0.61520612992413,0.608498003855573,-1.62432916988456
183,-0,-0.331554161875938,-0.573475559744209,1.14695111948842,-0.573475559744209,0.331554161875938,-0,-0.179853499792478,-0.508524108073429,1.01704821614686,-0.508524108073429,0.179853499792478,0.61520612992413,-0.608498003855573,-1.62432916988456,0.61520612992413,0.608498003855573,-1.62432916988456
184,-0,-0.329880456576586,-0.56586444249788,1.13172888499576,-0.56586444249788,0.329880456576586,-0,-0.179853499792478,-0.508524108073429,1.01704821614686,-0.508524108073429,0.179853499792478,0.61520612992413,-0.608498003855573,-1.62432916988456,0.61520612992413,0.608498003855573,-1.62432916988456
185,-0,-0.328222955923938,-0.558156582981001,1.116313165962,-0.558156582981001,0.328222955923938,-0,-0.179853499792478,-0.508524108073429,1.01704821614686,-0.508524108073429,0.179853499792478,0.61520612992413,-0.608498003855573,-1.62432916988456,0.61520612992413,0.608498003855573,-1.62432916988456
186,-0,-0.326581434690618,-0.55034795980869,1.10069591961738,-0.55034795980869,0.326581434690618,-0,-0.179853499792478,-0.508524108073429,1.01704821614686,-0.508524108073429,0.179853499792478,0.61520612992413,-0.608498003855573,-1.62432916988456,0.61520612992413,0.608498003855573,-1.62432916988456
187,-0,-0.324955671626574,-0.542434263845177,1.08486852769035,-0.542434263845177,0.324955671626574,-0,-0.179853499792478,-0.508524108073429,1.01704821614686,-0.508524108073429,0.179853499792478,0.61520612992413,-0.608498003855573,-1.62432916988456,0.61520612992413,0.608498003855573,-1.62432916988456
188,-0,-0.323415138793456,-0.534762059415639,1.06952411883128,-0.534762059415639,0.323415138793456,-0,-0.179853499792478,-0.508524108073429,1.01704821614686,-0.508524108073429,0.179853499792478,0.61520612992413,-0.608498003855573,-1.62432916988456,0.61520612992413,0.608498003855573,-1.62432916988456
189,-0,-0.321957722406937,-0.52734097478285,1.0546819495657,-0.52734097478285,0.321957722406937,-0,-0.179853499792478,-0.508524108073429,1.01704821614686,-0.508524108073429,0.179853499792478,0.61520612992413,-0.608498003855573,-1.62432916988456,0.61520612992413,0.608498003855573,-1.62432916988456
190,-0,-0.320581446889956,-0.52018086647753,1.04036173295506,-0.52018086647753,0.320581446889956,-0,-0.179853499792478,-0.508524108073429,1.01704821614686,-0.508524108073429,0.179853499792478,0.61520612992413,-0.608498003855573,-1.62432916988456,0.61520612992413,0.608498003855573,-1.62432916988456
191,-0,-0.319284468150513,-0.513291788166069,1.02658357633214,-0.513291788166069,0.319284468150513,-0,-0.179853499792478,-0.508524108073429,1.01704821614686,-0.508524108073429,0.179853499792478,0.61520612992413,-0.608498003855573,-1.62432916988456,0.61520612992413,0.608498003855573,-1.62432916988456
192,-0,-0.318065067397658,-0.506683953191363,1.01336790638273,-0.506683953191363,0.318065067397658,-0,-0.179853499792478,-0.508524108073429,1.01704821614686,-0.508524108073429,0.179853499792478,0.61520612992413,-0.608498003855573,-1.62432916988456,0.61520612992413,0.608498003855573,-1.62432916988456
193,-0,-0.316921645457565,-0.500367690464278,1.00073538092856,-0.500367690464278,0.316921645457565,-0,-0.179853499792478,-0.508524108073429,1.01704821614686,-0.508524108073429,0.179853499792478,0.61520612992413,-0.608498003855573,-1.62432916988456,0.61520612992413,0.608498003855573,-1.62432916988456
194,-0,-0.315852717555224,-0.494353393492094,0.988706786984187,-0.494353393492094,0.315852717555224,-0,-0.179853499792478,-0.508524108073429,1.01704821614686,-0.508524108073429,0.179853499792478,0.61520612992413,-0.608498003855573,-1.62432916988456,0.61520612992413,0.608498003855573,-1.62432916988456
195,-0,-0.314856908530539,-0.488651462470779,0.977302924941558,-0.488651462470779,0.314856908530539,-0,-0.179853499792478,-0.508524108073429,1.01704821614686,-0.508524108073429,0.179853499792478,0.61520612992413,-0.608498003855573,-1.62432916988456,0.61520612992413,0.608498003855573,-1.62432916988456
196,-0,-0.313932948460634,-0.483272239540873,0.966544479081747,-0.483272239540874,0.313932948460634,-0,-0.179853499792478,-0.508524108073429,1.01704821614686,-0.508524108073429,0.179853499792478,0.61520612992413,-0.608498003855573,-1.62432916988456,0.61520612992413,0.608498003855573,-1.62432916988456
197,-0,-0.313079668662916,-0.478225937510963,0.956451875021927,-0.478225937510963,0.313079668662916,-0,-0.179853499792478,-0.508524108073429,1.01704821614686,-0.508524108073429,0.179853499792478,0.61520612992413,-0.608498003855573,-1.62432916988456,0.61520612992413,0.608498003855573,-1.62432916988456
198,-0,-0.312295998055927,-0.473522562585066,0.947045125170132,-0.473522562585066,0.312295998055927,-0,-0.179853499792478,-0.508524108073429,1.01704821614686,-0.508524108073429,0.179853499792478,0.61520612992413,-0.608498003855573,-1.62432916988456,0.61520612992413,0.608498003855573,-1.62432916988456
199,-0,-0.31158095985736,-0.469171831884475,0.93834366376895,-0.469171831884475,0.31158095985736,-0,-0.179853499792478,-0.508524108073429,1.01704821614686,-0.508524108073429,0.179853499792478,0.61520612992413,-0.608498003855573,-1.62432916988456,0.61520612992413,0.608498003855573,-1.62432916988456
200,-0,-0.31093366860072,-0.465183086821965,0.930366173643931,-0.465183086821966,0.31093366860072,-0,-0.179853499792478,-0.508524108073429,1.01704821614686,-0.508524108073429,0.179853499792478,0.61520612992413,-0.608498003855573,-1.62432916988456,0.61520612992413,0.608498003855573,-1.62432916988456
201,-0,-0.310353327454077,-0.461565203654805,0.923130407309611,-0.461565203654805,0.310353327454077,-0,-0.179853499792478,-0.508524108073429,1.01704821614686,-0.508524108073429,0.179853499792478,0.61520612992413,-0.608498003855573,-1.62432916988456,0.61520612992413,0.608498003855573,-1.62432916988456
202,-0,-0.309839225826184,-0.458326502798341,0.916653005596681,-0.458326502798341,0.309839225826184,-0,-0.179853499792478,-0.508524108073429,1.01704821614686,-0.508524108073429,0.179853499792478,0.61520612992413,-0.608498003855573,-1.62432916988456,0.61520612992413,0.608498003855573,-1.62432916988456
203,-0,-0.309390737246949,-0.455474658707616,0.910949317415232,-0.455474658707616,0.309390737246949,-0,-0.179853499792478,-0.508524108073429,1.01704821614686,-0.508524108073429,0.179853499792478,0.61520612992413,-0.608498003855573,-1.62432916988456,0.61520612992413,0.608498003855573,-1.62432916988456
204,-0,-0.309007317510809,-0.453016612313202,0.906033224626404,-0.453016612313202,0.309007317510809,-0,-0.179853499792478,-0.508524108073429,1.01704821614686,-0.508524108073429,0.179853499792478,0.61520612992413,-0.608498003855573,-1.62432916988456,0.61520612992413,0.608498003855573,-1.62432916988456
205,-0,-0.308688503073072,-0.450958488112252,0.901916976224504,-0.450958488112252,0.308688503073072,-0,-0.179853499792478,-0.508524108073429,1.01704821614686,-0.508524108073429,0.179853499792478,0.61520612992413,-0.608498003855573,-1.62432916988456,0.61520612992413,0.608498003855573,-1.62432916988456
206,-0,-0.308433909690701,-0.449305518051889,0.898611036103778,-0.449305518051889,0.308433909690701,-0,-0.179853499792478,-0.508524108073429,1.01704821614686,-0.508524108073429,0.179853499792478,0.61520612992413,-0.608498003855573,-1.62432916988456,0.61520612992413,0.608498003855573,-1.62432916988456
207,-0,-0.308243231300347,-0.448061974288091,0.896123948576183,-0.448061974288092,0.308243231300347,-0,-0.179853499792478,-0.508524108073429,1.01704821614686,-0.508524108073429,0.179853499792478,0.61520612992413,-0.608498003855573,-1.62432916988456,0.61520612992413,0.608498003855573,-1.62432916988456
208,-0,-0.308116239127744,-0.447231112753377,0.894462225506755,-0.447231112753377,0.308116239127744,-0,-0.179853499792478,-0.508524108073429,1.01704821614686,-0.508524108073429,0.179853499792478,0.61520612992413,-0.608498003855573,-1.62432916988456,0.61520612992413,0.608498003855573,-1.62432916988456
209,-0,-0.308052781023776,-0.446815129221154,0.893630258442308,-0.446815129221154,0.308052781023776,-0,-0.179853499792478,-0.508524108073429,1.01704821614686,-0.508524108073429,0.179853499792478,0.61520612992413,-0.608498003855573,-1.62432916988456,0.61520612992413,0.608498003855573,-1.62432916988456
210,-0,-0.308052781023776,-0.446815129221154,0.893630258442308,-0.446815129221154,0.308052781023776,-0,-0.179853499792478,-0.508524108073429,1.01704821614686,-0.508524108073429,0.179853499792478,0.61520612992413,-0.608498003855573,-1.62432916988456,0.61520612992413,0.608498003855573,-1.62432916988456
211,-0,-0.307687171870226,-0.447057693190248,0.894115386380496,-0.447057693190248,0.307687171870226,-0,-0.179463778157212,-0.508651066438427,1.01730213287685,-0.508651066438426,0.179463778157212,0.61520612992413,-0.608498003855573,-1.62432916988456,0.61520612992413,0.608498003855573,-1.62432916988456
212,-0,-0.306955698706708,-0.447541617469455,0.89508323493891,-0.447541617469455,0.306955698706708,-0,-0.178684169646448,-0.508904079508962,1.01780815901792,-0.508904079508962,0.178684169646448,0.61520612992413,-0.608498003855573,-1.62432916988456,0.61520612992413,0.608498003855573,-1.62432916988456
213,-0,-0.305857852845467,-0.448264502579427,0.896529005158855,-0.448264502579427,0.305857852845467,-0,-0.177514345382675,-0.509281342200839,1.01856268440168,-0.509281342200839,0.177514345382675,0.61520612992413,-0.608498003855573,-1.62432916988456,0.61520612992413,0.608498003855573,-1.62432916988456
214,-0,-0.304392873830432,-0.44922276867644,0.898445537352879,-0.44922276867644,0.304392873830432,-0,-0.17595381606717,-0.509780152417842,1.01956030483568,-0.509780152417842,0.17595381606717,0.61520612992413,-0.608498003855573,-1.62432916988456,0.61520612992413,0.608498003855573,-1.62432916988456
215,-0,-0.302559752563915,-0.450411678193116,0.900823356386231,-0.450411678193116,0.302559752563915,-0,-0.174001936829344,-0.510396917530615,1.02079383506123,-0.510396917530615,0.174001936829344,0.61520612992413,-0.608498003855573,-1.62432916988456,0.61520612992413,0.608498003855573,-1.62432916988456
216,-0,-0.300357235535545,-0.451825365038883,0.903650730077765,-0.451825365038883,0.300357235535545,-0,-0.171657913739278,-0.511127162757884,1.02225432551577,-0.511127162757884,0.171657913739278,0.61520612992413,-0.608498003855573,-1.62432916988456,0.61520612992413,0.608498003855573,-1.62432916988456
217,-0,-0.297783830204817,-0.453456869569606,0.906913739139212,-0.453456869569606,0.297783830204817,-0,-0.168920812022639,-0.511965541238732,1.02393108247746,-0.511965541238732,0.168920812022639,0.61520612992413,-0.608498003855573,-1.62432916988456,0.61520612992413,0.608498003855573,-1.62432916988456
218,-0,-0.294837811601335,-0.45529817840326,0.91059635680652,-0.45529817840326,0.294837811601335,-0,-0.165789566025877,-0.512905845542821,1.02581169108564,-0.512905845542821,0.165789566025877,0.61520612992413,-0.608498003855573,-1.62432916988456,0.61520612992413,0.608498003855573,-1.62432916988456
219,-0,-0.291517230219491,-0.457340268062729,0.914680536125459,-0.457340268062729,0.291517230219491,-0,-0.162262990987514,-0.513941020330118,1.02788204066024,-0.513941020330118,0.162262990987514,0.61520612992413,-0.608498003855573,-1.62432916988456,0.61520612992413,0.608498003855573,-1.62432916988456
220,-0,-0.287819921296688,-0.459573151369633,0.919146302739265,-0.459573151369633,0.287819921296688,-0,-0.158339796678247,-0.515063175843491,1.03012635168698,-0.515063175843491,0.158339796678247,0.61520612992413,-0.608498003855573,-1.62432916988456,0.61520612992413,0.608498003855573,-1.62432916988456
221,-0,-0.283743515576423,-0.461985925493879,0.923971850987758,-0.461985925493879,0.283743515576423,-0,-0.154018602978336,-0.516263601896537,1.03252720379307,-0.516263601896537,0.154018602978336,0.61520612992413,-0.608498003855573,-1.62432916988456,0.61520612992413,0.608498003855573,-1.62432916988456
222,-0,-0.279285451669258,-0.464566820580093,0.929133641160186,-0.464566820580093,0.279285451669258,-0,-0.14929795746499,-0.517532782005248,1.0350655640105,-0.517532782005248,0.14929795746499,0.61520612992413,-0.608498003855573,-1.62432916988456,0.61520612992413,0.608498003855573,-1.62432916988456
223,-0,-0.2744429901359,-0.467303247919953,0.934606495839906,-0.467303247919953,0.2744429901359,-0,-0.144176355085004,-0.518860407305039,1.03772081461008,-0.518860407305039,0.144176355085004,0.61520612992413,-0.608498003855573,-1.62432916988456,0.61520612992413,0.608498003855573,-1.62432916988456
224,-0,-0.269213229427051,-0.470181846713668,0.940363693427336,-0.470181846713668,0.269213229427051,-0,-0.138652259988366,-0.520235389893565,1.04047077978713,-0.520235389893566,0.138652259988366,0.61520612992413,-0.608498003855573,-1.62432916988456,0.61520612992413,0.608498003855573,-1.62432916988456
225,-0,-0.263593123824099,-0.473188528558286,0.946377057116572,-0.473188528558286,0.263593123824099,-0,-0.132724129596689,-0.521645875243614,1.04329175048723,-0.521645875243614,0.132724129596689,0.61520612992413,-0.608498003855573,-1.62432916988456,0.61520612992413,0.608498003855573,-1.62432916988456
226,-0,-0.257579503532842,-0.476308518909029,0.952617037818058,-0.476308518909029,0.257579503532842,-0,-0.126390440975635,-0.523079253337909,1.04615850667582,-0.523079253337909,0.126390440975635,0.61520612992413,-0.608498003855573,-1.62432916988456,0.61520612992413,0.608498003855573,-1.62432916988456
227,-0,-0.251169097088905,-0.4795263948763,0.959052789752601,-0.4795263948763,0.251169097088905,-0,-0.119649719572774,-0.524522168187471,1.04904433637494,-0.524522168187471,0.119649719572774,0.61520612992413,-0.608498003855573,-1.62432916988456,0.61520612992413,0.608498003855573,-1.62432916988456
228,-0,-0.244358556237896,-0.482826118839693,0.965652237679386,-0.482826118839693,0.244358556237896,-0,-0.112500570370956,-0.525960525405641,1.05192105081128,-0.525960525405641,0.112500570370956,0.61520612992413,-0.608498003855573,-1.62432916988456,0.61520612992413,0.608498003855573,-1.62432916988456
229,-0,-0.237144483455185,-0.486191067476238,0.972382134952475,-0.486191067476238,0.237144483455185,-0,-0.104941711492054,-0.527379497519154,1.05475899503831,-0.527379497519154,0.104941711492054,0.61520612992413,-0.608498003855573,-1.62432916988456,0.61520612992413,0.608498003855573,-1.62432916988456
230,-0,-0.229523462268931,-0.489604055909048,0.979208111818095,-0.489604055909047,0.229523462268931,-0,-0.0969720102662345,-0.528763526703997,1.05752705340799,-0.528763526703997,0.0969720102662345,0.61520612992413,-0.608498003855573,-1.62432916988456,0.61520612992413,0.608498003855573,-1.62432916988456
231,-0,-0.221492090545014,-0.493047356781019,0.986094713562037,-0.493047356781018,0.221492090545014,-0,-0.0885905217575319,-0.530096324635025,1.06019264927005,-0.530096324635025,0.0885905217575319,0.61520612992413,-0.608498003855573,-1.62432916988456,0.61520612992413,0.608498003855573,-1.62432916988456
232,-0,-0.213047016883151,-0.496502714143781,0.993005428287562,-0.496502714143781,0.213047016883151,-0,-0.0797965297068969,-0.531360869132369,1.06272173826474,-0.531360869132369,0.0797965297068969,0.61520612992413,-0.608498003855573,-1.62432916988456,0.61520612992413,0.608498003855573,-1.62432916988456
233,-0,-0.204184980258999,-0.499951352122763,0.999902704245526,-0.499951352122763,0.204184980258999,-0,-0.0705895898188736,-0.532539397272056,1.06507879454411,-0.532539397272056,0.0705895898188736,0.61520612992413,-0.608498003855573,-1.62432916988456,0.61520612992413,0.608498003855573,-1.62432916988456
234,-0,-0.195290299802247,-0.503234924088687,1.00646984817737,-0.503234924088687,0.195290299802247,-0,-0.061370647285633,-0.533571813332161,1.06714362666432,-0.533571813332161,0.061370647285633,0.61520612992413,-0.608498003855573,-1.62432916988456,0.61520612992413,0.608498003855573,-1.62432916988456
235,-0,-0.186364209808437,-0.506355632388557,1.01271126477711,-0.506355632388557,0.186364209808437,-0,-0.0521412484383104,-0.534458621040675,1.06891724208135,-0.534458621040675,0.0521412484383104,0.61520612992413,-0.608498003855573,-1.62432916988456,0.61520612992413,0.608498003855573,-1.62432916988456
236,-0,-0.177407973320463,-0.509315504629678,1.01863100925936,-0.509315504629678,0.177407973320463,-0,-0.0429029502408904,-0.535200248782322,1.07040049756464,-0.535200248782322,0.0429029502408904,0.61520612992413,-0.608498003855573,-1.62432916988456,0.61520612992413,0.608498003855573,-1.62432916988456
237,-0,-0.16842288126683,-0.51211640656902,1.02423281313804,-0.51211640656902,0.16842288126683,-0,-0.0336573187355215,-0.535797051781755,1.07159410356351,-0.535797051781754,0.0336573187355215,0.61520612992413,-0.608498003855573,-1.62432916988456,0.61520612992413,0.608498003855573,-1.62432916988456
238,-0,-0.159802659487408,-0.514648360609434,1.02929672121887,-0.514648360609434,0.159802659487408,-0,-0.0248082602343505,-0.536232652763307,1.07246530552661,-0.536232652763307,0.0248082602343505,0.61520612992413,-0.608498003855573,-1.62432916988456,0.61520612992413,0.608498003855573,-1.62432916988456
239,-0,-0.151551842327555,-0.516932280365448,1.0338645607309,-0.516932280365448,0.151551842327555,-0,-0.0163577854740917,-0.53652526271095,1.0730505254219,-0.53652526271095,0.0163577854740917,0.61520612992413,-0.608498003855573,-1.62432916988456,0.61520612992413,0.608498003855573,-1.62432916988456
240,-0,-0.143674525442662,-0.518987748561919,1.03797549712384,-0.518987748561919,0.143674525442662,-0,-0.00830752370973292,-0.536692178991646,1.07338435798329,-0.536692178991646,0.00830752370973292,0.61520612992413,-0.608498003855573,-1.62432916988456,0.61520612992413,0.608498003855573,-1.62432916988456
241,-0,-0.136174392319811,-0.520833102598546,1.04166620519709,-0.520833102598546,0.136174392319811,-0,-0.000658761433033232,-0.53674981256336,1.07349962512672,-0.53674981256336,0.000658761433033232,0.61520612992413,-0.608498003855573,-1.62432916988456,0.61520612992413,0.608498003855573,-1.62432916988456
242,-0,-0.129054741161467,-0.522485506193749,1.0449710123875,-0.522485506193749,0.129054741161467,-0,0.00658751999221522,-0.536713709978881,1.07342741995776,-0.536713709978881,-0.00658751999221522,0.61520612992413,-0.608498003855573,-1.62432916988456,0.61520612992413,0.608498003855573,-1.62432916988456
243,-0,-0.122318511831452,-0.523961009445939,1.04792201889188,-0.523961009445939,0.122318511831452,-0,0.013430608003855,-0.536598570917667,1.07319714183533,-0.536598570917667,-0.013430608003855,0.61520612992413,-0.608498003855573,-1.62432916988456,0.61520612992413,0.608498003855573,-1.62432916988456
244,-0,-0.115968312588893,-0.5252745992159,1.0505491984318,-0.5252745992159,0.115968312588893,-0,0.0198700240113948,-0.536418261871652,1.0728365237433,-0.536418261871652,-0.0198700240113948,0.61520612992413,-0.608498003855573,-1.62432916988456,0.61520612992413,0.608498003855573,-1.62432916988456
245,-0,-0.110006446361574,-0.526440241390604,1.05288048278121,-0.526440241390604,0.110006446361574,-0,0.0259054902148247,-0.536185826526863,1.07237165305373,-0.536185826526863,-0.0259054902148247,0.61520612992413,-0.608498003855573,-1.62432916988456,0.61520612992413,0.608498003855573,-1.62432916988456
246,-0,-0.104434936335625,-0.527470916315405,1.05494183263081,-0.527470916315405,0.104434936335625,-0,0.0315368981930757,-0.535913493315875,1.07182698663175,-0.535913493315875,-0.0315368981930757,0.61520612992413,-0.608498003855573,-1.62432916988456,0.61520612992413,0.608498003855573,-1.62432916988456
247,-0,-0.0992555506633125,-0.528378648462498,1.056757296925,-0.528378648462498,0.0992555506633125,-0,0.03676427935499,-0.535612680562974,1.07122536112595,-0.535612680562974,-0.03676427935499,0.61520612992413,-0.608498003855573,-1.62432916988456,0.61520612992413,0.608498003855573,-1.62432916988456
248,-0,-0.0944698261143475,-0.529174531226822,1.05834906245364,-0.529174531226822,0.0944698261143475,-0,0.041587777321239,-0.535293999601182,1.07058799920236,-0.535293999601182,-0.041587777321239,0.61520612992413,-0.608498003855573,-1.62432916988456,0.61520612992413,0.608498003855573,-1.62432916988456
249,-0,-0.0900790905185126,-0.529868747597012,1.05973749519402,-0.529868747597012,0.0900790905185126,-0,0.0460076222846843,-0.534967256205483,1.06993451241097,-0.534967256205483,-0.0460076222846843,0.61520612992413,-0.608498003855573,-1.62432916988456,0.61520612992413,0.608498003855573,-1.62432916988456
250,-0,-0.0860844838680962,-0.530470587331465,1.06094117466293,-0.530470587331465,0.0860844838680962,-0,0.0500241073790962,-0.53464145065757,1.06928290131514,-0.53464145065757,-0.0500241073790962,0.61520612992413,-0.608498003855573,-1.62432916988456,0.61520612992413,0.608498003855573,-1.62432916988456
251,-0,-0.082486977967671,-0.530988461172565,1.06197692234513,-0.530988461172565,0.082486977967671,-0,0.053637567071721,-0.534324776732419,1.06864955346484,-0.534324776732419,-0.053637567071721,0.61520612992413,-0.608498003855573,-1.62432916988456,0.61520612992413,0.608498003855573,-1.62432916988456
252,-0,-0.0792873945359699,-0.531429912551137,1.06285982510227,-0.531429912551137,0.0792873945359699,-0,0.0568483575837263,-0.534024619874571,1.06804923974914,-0.534024619874571,-0.0568483575837263,0.61520612992413,-0.608498003855573,-1.62432916988456,0.61520612992413,0.608498003855573,-1.62432916988456
253,-0,-0.0764864216800447,-0.531801627164979,1.06360325432996,-0.531801627164979,0.0764864216800447,-0,0.0596568393337852,-0.533747554810938,1.06749510962188,-0.533747554810938,-0.0596568393337852,0.61520612992413,-0.608498003855573,-1.62432916988456,0.61520612992413,0.608498003855573,-1.62432916988456
254,-0,-0.0740846286755635,-0.532109440756991,1.06421888151398,-0.532109440756991,0.0740846286755635,-0,0.0620633613937588,-0.533499342826375,1.06699868565275,-0.533499342826375,-0.0620633613937588,0.61520612992413,-0.608498003855573,-1.62432916988456,0.61520612992413,0.608498003855573,-1.62432916988456
255,-0,-0.0720824789990947,-0.532358345367892,1.06471669073578,-0.532358345367892,0.0720824789990947,-0,0.0640682479413058,-0.533284928907393,1.06656985781479,-0.533284928907393,-0.0640682479413058,0.61520612992413,-0.608498003855573,-1.62432916988456,0.61520612992413,0.608498003855573,-1.62432916988456
256,-0,-0.0704803415686596,-0.532552494294012,1.06510498858802,-0.532552494294012,0.0704803415686596,-0,0.0656717866920612,-0.53310843893774,1.06621687787548,-0.53310843893774,-0.0656717866920612,0.61520612992413,-0.608498003855573,-1.62432916988456,0.61520612992413,0.608498003855573,-1.62432916988456
257,-0,-0.0692785001578442,-0.532695205940803,1.06539041188161,-0.532695205940803,0.0692785001578442,-0,0.0668742192934848,-0.532973177106786,1.06594635421357,-0.532973177106786,-0.0668742192934848,0.61520612992413,-0.608498003855573,-1.62432916988456,0.61520612992413,0.608498003855573,-1.62432916988456
258,-0,-0.0684771609565302,-0.532788966726415,1.06557793345283,-0.532788966726415,0.0684771609565302,-0,0.0676757336633663,-0.532881623667584,1.06576324733517,-0.532881623667584,-0.0676757336633663,0.61520612992413,-0.608498003855573,-1.62432916988456,0.61520612992413,0.608498003855573,-1.62432916988456
259,-0,-0.0680764582579995,-0.532835433156047,1.06567086631209,-0.532835433156047,0.0680764582579995,-0,0.0680764582579995,-0.532835433156047,1.06567086631209,-0.532835433156047,-0.0680764582579995,0.61520612992413,-0.608498003855573,-1.62432916988456,0.61520612992413,0.608498003855573,-1.62432916988456
260,-0,-0.0680764582579995,-0.532835433156047,1.06567086631209,-0.532835433156047,0.0680764582579995,-0,0.0680764582579995,-0.532835433156047,1.06567086631209,-0.532835433156047,-0.0680764582579995,0.61520612992413,-0.608498003855573,-1.62432916988456,0.61520612992413,0.608498003855573,-1.62432916988456
